%YAML 1.1
%TAG !u! tag:unity3d.com,2011:
--- !u!181963792 &2655988077585873504
Preset:
  m_ObjectHideFlags: 0
  m_CorrespondingSourceObject: {fileID: 0}
  m_PrefabInstance: {fileID: 0}
  m_PrefabAsset: {fileID: 0}
  m_Name: SpriteRenderer_Default
  m_TargetType:
    m_NativeTypeID: 212
    m_ManagedTypePPtr: {fileID: 0}
    m_ManagedTypeFallback: 
  m_Properties:
  - target: {fileID: 0}
    propertyPath: m_Enabled
    value: 1
    objectReference: {fileID: 0}
  - target: {fileID: 0}
    propertyPath: m_CastShadows
    value: 0
    objectReference: {fileID: 0}
  - target: {fileID: 0}
    propertyPath: m_ReceiveShadows
    value: 0
    objectReference: {fileID: 0}
  - target: {fileID: 0}
    propertyPath: m_DynamicOccludee
    value: 1
    objectReference: {fileID: 0}
  - target: {fileID: 0}
    propertyPath: m_MotionVectors
    value: 1
    objectReference: {fileID: 0}
  - target: {fileID: 0}
    propertyPath: m_LightProbeUsage
    value: 1
    objectReference: {fileID: 0}
  - target: {fileID: 0}
    propertyPath: m_ReflectionProbeUsage
    value: 1
    objectReference: {fileID: 0}
  - target: {fileID: 0}
    propertyPath: m_RayTracingMode
    value: 0
    objectReference: {fileID: 0}
  - target: {fileID: 0}
    propertyPath: m_RenderingLayerMask
    value: 1
    objectReference: {fileID: 0}
  - target: {fileID: 0}
    propertyPath: m_RendererPriority
    value: 0
    objectReference: {fileID: 0}
  - target: {fileID: 0}
    propertyPath: m_Materials.Array.size
    value: 1
    objectReference: {fileID: 0}
  - target: {fileID: 0}
    propertyPath: m_Materials.Array.data[0]
    value: 
    objectReference: {fileID: 10754, guid: 0000000000000000f000000000000000, type: 0}
  - target: {fileID: 0}
    propertyPath: m_StaticBatchInfo.firstSubMesh
    value: 0
    objectReference: {fileID: 0}
  - target: {fileID: 0}
    propertyPath: m_StaticBatchInfo.subMeshCount
    value: 0
    objectReference: {fileID: 0}
  - target: {fileID: 0}
    propertyPath: m_StaticBatchRoot
    value: 
    objectReference: {fileID: 0}
  - target: {fileID: 0}
    propertyPath: m_ProbeAnchor
    value: 
    objectReference: {fileID: 0}
  - target: {fileID: 0}
    propertyPath: m_LightProbeVolumeOverride
    value: 
    objectReference: {fileID: 0}
  - target: {fileID: 0}
    propertyPath: m_ScaleInLightmap
    value: 1
    objectReference: {fileID: 0}
  - target: {fileID: 0}
    propertyPath: m_ReceiveGI
    value: 1
    objectReference: {fileID: 0}
  - target: {fileID: 0}
    propertyPath: m_PreserveUVs
    value: 0
    objectReference: {fileID: 0}
  - target: {fileID: 0}
    propertyPath: m_IgnoreNormalsForChartDetection
    value: 0
    objectReference: {fileID: 0}
  - target: {fileID: 0}
    propertyPath: m_ImportantGI
    value: 0
    objectReference: {fileID: 0}
  - target: {fileID: 0}
    propertyPath: m_StitchLightmapSeams
    value: 1
    objectReference: {fileID: 0}
  - target: {fileID: 0}
    propertyPath: m_SelectedEditorRenderState
    value: 0
    objectReference: {fileID: 0}
  - target: {fileID: 0}
    propertyPath: m_MinimumChartSize
    value: 4
    objectReference: {fileID: 0}
  - target: {fileID: 0}
    propertyPath: m_AutoUVMaxDistance
    value: 0.5
    objectReference: {fileID: 0}
  - target: {fileID: 0}
    propertyPath: m_AutoUVMaxAngle
    value: 89
    objectReference: {fileID: 0}
  - target: {fileID: 0}
    propertyPath: m_LightmapParameters
    value: 
    objectReference: {fileID: 0}
  - target: {fileID: 0}
    propertyPath: m_SortingLayerID
    value: 1668855433
    objectReference: {fileID: 0}
  - target: {fileID: 0}
    propertyPath: m_SortingLayer
    value: 0
    objectReference: {fileID: 0}
  - target: {fileID: 0}
    propertyPath: m_SortingOrder
    value: 0
    objectReference: {fileID: 0}
  - target: {fileID: 0}
    propertyPath: m_Sprite
    value: 
    objectReference: {fileID: 21300000, guid: aec838a60c5d56e4fa1c3ecb56549d59, type: 3}
  - target: {fileID: 0}
    propertyPath: m_Color.r
    value: 1
    objectReference: {fileID: 0}
  - target: {fileID: 0}
    propertyPath: m_Color.g
    value: 1
    objectReference: {fileID: 0}
  - target: {fileID: 0}
    propertyPath: m_Color.b
    value: 1
    objectReference: {fileID: 0}
  - target: {fileID: 0}
    propertyPath: m_Color.a
    value: 1
    objectReference: {fileID: 0}
  - target: {fileID: 0}
    propertyPath: m_FlipX
    value: 0
    objectReference: {fileID: 0}
  - target: {fileID: 0}
    propertyPath: m_FlipY
    value: 0
    objectReference: {fileID: 0}
  - target: {fileID: 0}
    propertyPath: m_DrawMode
    value: 0
    objectReference: {fileID: 0}
  - target: {fileID: 0}
    propertyPath: m_Size.x
    value: 1
    objectReference: {fileID: 0}
  - target: {fileID: 0}
    propertyPath: m_Size.y
    value: 1
    objectReference: {fileID: 0}
  - target: {fileID: 0}
    propertyPath: m_AdaptiveModeThreshold
    value: 0.5
    objectReference: {fileID: 0}
  - target: {fileID: 0}
    propertyPath: m_SpriteTileMode
    value: 0
    objectReference: {fileID: 0}
  - target: {fileID: 0}
    propertyPath: m_WasSpriteAssigned
    value: 1
    objectReference: {fileID: 0}
  - target: {fileID: 0}
    propertyPath: m_MaskInteraction
    value: 0
    objectReference: {fileID: 0}
  - target: {fileID: 0}
    propertyPath: m_SpriteSortPoint
    value: 0
    objectReference: {fileID: 0}
