%YAML 1.1
%TAG !u! tag:unity3d.com,2011:
--- !u!1045 &1
EditorBuildSettings:
  m_ObjectHideFlags: 0
  serializedVersion: 2
  m_Scenes:
  - enabled: 0
    path: 
    guid: 00000000000000000000000000000000
  - enabled: 1
    path: Assets/Main.unity
    guid: fecc55b806749374eb7a299734044f90
  m_configObjects:
    com.unity.input.settings: {fileID: 11400000, guid: 5c5511bf3d0c69f46a3881d044dcd516,
      type: 2}
